{
  "name": "DriverPayment",
  "settings": {
    "strict": false,
    "forceId": false,
    "replaceOnPUT": true,
    "idInjection": false,
    "mysql": {
      "schema": "menurunner_gen",
      "table": "driver_payment"
    }
  },
  "properties": {
    "dpaymentId": {
      "type": "number",
      "id": 1,
      "required": true,
      "length": null,
      "precision": 22,
      "scale": null,
      "mysql": {
        "columnName": "dpayment_id",
        "dataType": "double",
        "dataLength": null,
        "dataPrecision": 22,
        "dataScale": null,
        "nullable": "N"
      },
      "updateOnly": false
    },
    "driverId": {
      "type": "number",
      "required": true,
      "length": null,
      "precision": 22,
      "scale": null,
      "mysql": {
        "columnName": "driver_id",
        "dataType": "double",
        "dataLength": null,
        "dataPrecision": 22,
        "dataScale": null,
        "nullable": "N"
      }
    },
    "paidAmount": {
      "type": "number",
      "required": true,
      "length": null,
      "precision": 10,
      "scale": 2,
      "mysql": {
        "columnName": "paid_amount",
        "dataType": "decimal",
        "dataLength": null,
        "dataPrecision": 10,
        "dataScale": 2,
        "nullable": "N"
      }
    },
    "orderCount": {
      "type": "number",
      "required": true,
      "length": null,
      "precision": 10,
      "scale": 0,
      "mysql": {
        "columnName": "order_count",
        "dataType": "int",
        "dataLength": null,
        "dataPrecision": 10,
        "dataScale": 0,
        "nullable": "N"
      }
    },
    "orderIds": {
      "type": "string",
      "required": true,
      "length": 250,
      "precision": null,
      "scale": null,
      "mysql": {
        "columnName": "order_ids",
        "dataType": "varchar",
        "dataLength": 250,
        "dataPrecision": null,
        "dataScale": null,
        "nullable": "N"
      }
    },
    "paymentInfo": {
      "type": "string",
      "required": true,
      "length": 65535,
      "precision": null,
      "scale": null,
      "mysql": {
        "columnName": "payment_info",
        "dataType": "text",
        "dataLength": 65535,
        "dataPrecision": null,
        "dataScale": null,
        "nullable": "N"
      }
    },
    "payoutId": {
      "type": "string",
      "required": true,
      "length": 250,
      "precision": null,
      "scale": null,
      "mysql": {
        "columnName": "payout_id",
        "dataType": "varchar",
        "dataLength": 250,
        "dataPrecision": null,
        "dataScale": null,
        "nullable": "N"
      }
    },
    "payoutInfo": {
      "type": "string",
      "required": true,
      "length": 65535,
      "precision": null,
      "scale": null,
      "mysql": {
        "columnName": "payout_info",
        "dataType": "text",
        "dataLength": 65535,
        "dataPrecision": null,
        "dataScale": null,
        "nullable": "N"
      }
    },
    "driverTransferFee": {
      "type": "number",
      "required": true,
      "length": null,
      "precision": 10,
      "scale": 2,
      "mysql": {
        "columnName": "driver_transfer_fee",
        "dataType": "float",
        "dataLength": null,
        "dataPrecision": 10,
        "dataScale": 2,
        "nullable": "N"
      }
    },
    "transferFeeInfo": {
      "type": "string",
      "required": true,
      "length": 65535,
      "precision": null,
      "scale": null,
      "mysql": {
        "columnName": "transfer_fee_info",
        "dataType": "text",
        "dataLength": 65535,
        "dataPrecision": null,
        "dataScale": null,
        "nullable": "N"
      }
    },
    "paidBy": {
      "type": "string",
      "required": true,
      "length": 1,
      "precision": null,
      "scale": null,
      "mysql": {
        "columnName": "paid_by",
        "dataType": "enum",
        "dataLength": 1,
        "dataPrecision": null,
        "dataScale": null,
        "nullable": "N"
      }
    },
    "createdDttm": {
      "type": "date",
      "required": true,
      "length": null,
      "precision": null,
      "scale": null,
      "mysql": {
        "columnName": "created_dttm",
        "dataType": "datetime",
        "dataLength": null,
        "dataPrecision": null,
        "dataScale": null,
        "nullable": "N"
      }
    }
  },
  "validations": [],
  "relations": {},
  "acls": [],
  "methods": {}
}
