{
  "name": "ItemOption",
  "settings": {
    "strict": false,
    "forceId": "auto",
    "replaceOnPUT": true,
    "idInjection": false,
    "mysql": {
      "schema": "menurunner_gen",
      "table": "item_option"
    }
  },
  "properties": {
    "itemId": {
      "type": "number",
      "required": true,
      "length": null,
      "precision": 22,
      "scale": null,
      "mysql": {
        "columnName": "item_id",
        "dataType": "double",
        "dataLength": null,
        "dataPrecision": 22,
        "dataScale": null,
        "nullable": "N"
      }
    },
    "optionId": {
      "type": "number",
      "required": true,
      "length": null,
      "precision": 22,
      "scale": null,
      "mysql": {
        "columnName": "option_id",
        "dataType": "double",
        "dataLength": null,
        "dataPrecision": 22,
        "dataScale": null,
        "nullable": "N"
      }
    },
    "orgLocationId": {
      "type": "number",
      "required": true,
      "length": null,
      "precision": 22,
      "scale": null,
      "mysql": {
        "columnName": "org_location_id",
        "dataType": "double",
        "dataLength": null,
        "dataPrecision": 22,
        "dataScale": null,
        "nullable": "N"
      }
    },
    "name": {
      "type": "string",
      "required": true,
      "length": 255,
      "precision": null,
      "scale": null,
      "mysql": {
        "columnName": "name",
        "dataType": "varchar",
        "dataLength": 255,
        "dataPrecision": null,
        "dataScale": null,
        "nullable": "N"
      }
    },
    "price": {
      "type": "string",
      "required": true,
      "length": 100,
      "precision": null,
      "scale": null,
      "mysql": {
        "columnName": "price",
        "dataType": "varchar",
        "dataLength": 100,
        "dataPrecision": null,
        "dataScale": null,
        "nullable": "N"
      }
    },
    "minOption": {
      "type": "number",
      "required": true,
      "length": null,
      "precision": 10,
      "scale": 0,
      "mysql": {
        "columnName": "min_option",
        "dataType": "int",
        "dataLength": null,
        "dataPrecision": 10,
        "dataScale": 0,
        "nullable": "N"
      }
    },
    "maxOption": {
      "type": "number",
      "required": true,
      "length": null,
      "precision": 10,
      "scale": 0,
      "mysql": {
        "columnName": "max_option",
        "dataType": "int",
        "dataLength": null,
        "dataPrecision": 10,
        "dataScale": 0,
        "nullable": "N"
      }
    },
    "isDeleted": {
      "type": "string",
      "required": true,
      "length": 1,
      "precision": null,
      "scale": null,
      "mysql": {
        "columnName": "is_deleted",
        "dataType": "varchar",
        "dataLength": 1,
        "dataPrecision": null,
        "dataScale": null,
        "nullable": "N"
      }
    },
    "id": {
      "type": "number",
      "id": 1,
      "generated": true,
      "updateOnly": true
    }
  },
  "validations": [],
  "relations": {},
  "acls": [],
  "methods": {}
}
