{
  "name": "ItemCategory",
  "settings": {
    "strict": false,
    "forceId": false,
    "replaceOnPUT": true,
    "idInjection": false,
    "mysql": {
      "schema": "menurunner_gen",
      "table": "item_category"
    }
  },
  "properties": {
    "categoryId": {
      "type": "number",
      "id": 1,
      "required": true,
      "length": null,
      "precision": 22,
      "scale": null,
      "mysql": {
        "columnName": "category_id",
        "dataType": "double",
        "dataLength": null,
        "dataPrecision": 22,
        "dataScale": null,
        "nullable": "N"
      },
      "updateOnly": false
    },
    "orgId": {
      "type": "number",
      "required": true,
      "length": null,
      "precision": 22,
      "scale": null,
      "mysql": {
        "columnName": "org_id",
        "dataType": "double",
        "dataLength": null,
        "dataPrecision": 22,
        "dataScale": null,
        "nullable": "N"
      }
    },
    "name": {
      "type": "string",
      "required": true,
      "length": 255,
      "precision": null,
      "scale": null,
      "mysql": {
        "columnName": "name",
        "dataType": "varchar",
        "dataLength": 255,
        "dataPrecision": null,
        "dataScale": null,
        "nullable": "N"
      }
    },
    "description": {
      "type": "string",
      "required": true,
      "length": 500,
      "precision": null,
      "scale": null,
      "mysql": {
        "columnName": "description",
        "dataType": "varchar",
        "dataLength": 500,
        "dataPrecision": null,
        "dataScale": null,
        "nullable": "N"
      }
    },
    "updatedDttm": {
      "type": "date",
      "required": true,
      "length": null,
      "precision": null,
      "scale": null,
      "mysql": {
        "columnName": "updated_dttm",
        "dataType": "datetime",
        "dataLength": null,
        "dataPrecision": null,
        "dataScale": null,
        "nullable": "N"
      }
    },
    "createdDttm": {
      "type": "date",
      "required": true,
      "length": null,
      "precision": null,
      "scale": null,
      "mysql": {
        "columnName": "created_dttm",
        "dataType": "datetime",
        "dataLength": null,
        "dataPrecision": null,
        "dataScale": null,
        "nullable": "N"
      }
    },
    "createdBy": {
      "type": "number",
      "required": true,
      "length": null,
      "precision": 22,
      "scale": null,
      "mysql": {
        "columnName": "created_by",
        "dataType": "double",
        "dataLength": null,
        "dataPrecision": 22,
        "dataScale": null,
        "nullable": "N"
      }
    },
    "isDeleted": {
      "type": "string",
      "required": true,
      "length": 1,
      "precision": null,
      "scale": null,
      "mysql": {
        "columnName": "is_deleted",
        "dataType": "varchar",
        "dataLength": 1,
        "dataPrecision": null,
        "dataScale": null,
        "nullable": "N"
      }
    }
  },
  "validations": [],
  "relations": {},
  "acls": [],
  "methods": {}
}
