{
  "name": "Item",
  "settings": {
    "strict": false,
    "forceId": false,
    "replaceOnPUT": true,
    "idInjection": false,
    "mysql": {
      "schema": "menurunner_gen",
      "table": "item"
    }
  },
  "properties": {
    "itemId": {
      "type": "number",
      "id": 1,
      "required": true,
      "length": null,
      "precision": 22,
      "scale": null,
      "mysql": {
        "columnName": "item_id",
        "dataType": "double",
        "dataLength": null,
        "dataPrecision": 22,
        "dataScale": null,
        "nullable": "N"
      },
      "updateOnly": false
    },
    "orgLocationId": {
      "type": "number",
      "required": true,
      "length": null,
      "precision": 22,
      "scale": null,
      "mysql": {
        "columnName": "org_location_id",
        "dataType": "double",
        "dataLength": null,
        "dataPrecision": 22,
        "dataScale": null,
        "nullable": "N"
      }
    },
    "orgId": {
      "type": "number",
      "required": true,
      "length": null,
      "precision": 22,
      "scale": null,
      "mysql": {
        "columnName": "org_id",
        "dataType": "double",
        "dataLength": null,
        "dataPrecision": 22,
        "dataScale": null,
        "nullable": "N"
      }
    },
    "categoryId": {
      "type": "number",
      "required": true,
      "length": null,
      "precision": 22,
      "scale": null,
      "mysql": {
        "columnName": "category_id",
        "dataType": "double",
        "dataLength": null,
        "dataPrecision": 22,
        "dataScale": null,
        "nullable": "N"
      }
    },
    "isTemplate": {
      "type": "string",
      "required": true,
      "length": 1,
      "precision": null,
      "scale": null,
      "mysql": {
        "columnName": "is_template",
        "dataType": "varchar",
        "dataLength": 1,
        "dataPrecision": null,
        "dataScale": null,
        "nullable": "N"
      }
    },
    "templateId": {
      "type": "number",
      "required": true,
      "length": null,
      "precision": 22,
      "scale": null,
      "mysql": {
        "columnName": "template_id",
        "dataType": "double",
        "dataLength": null,
        "dataPrecision": 22,
        "dataScale": null,
        "nullable": "N"
      }
    },
    "name": {
      "type": "string",
      "required": true,
      "length": 255,
      "precision": null,
      "scale": null,
      "mysql": {
        "columnName": "name",
        "dataType": "varchar",
        "dataLength": 255,
        "dataPrecision": null,
        "dataScale": null,
        "nullable": "N"
      }
    },
    "description": {
      "type": "string",
      "required": true,
      "length": 500,
      "precision": null,
      "scale": null,
      "mysql": {
        "columnName": "description",
        "dataType": "varchar",
        "dataLength": 500,
        "dataPrecision": null,
        "dataScale": null,
        "nullable": "N"
      }
    },
    "price": {
      "type": "string",
      "required": true,
      "length": 200,
      "precision": null,
      "scale": null,
      "mysql": {
        "columnName": "price",
        "dataType": "varchar",
        "dataLength": 200,
        "dataPrecision": null,
        "dataScale": null,
        "nullable": "N"
      }
    },
    "serviceFee": {
      "type": "number",
      "required": true,
      "length": null,
      "precision": 12,
      "scale": null,
      "mysql": {
        "columnName": "service_fee",
        "dataType": "float",
        "dataLength": null,
        "dataPrecision": 12,
        "dataScale": null,
        "nullable": "N"
      }
    },
    "image": {
      "type": "string",
      "required": true,
      "length": 255,
      "precision": null,
      "scale": null,
      "mysql": {
        "columnName": "image",
        "dataType": "varchar",
        "dataLength": 255,
        "dataPrecision": null,
        "dataScale": null,
        "nullable": "N"
      }
    },
    "updatedDttm": {
      "type": "date",
      "required": true,
      "length": null,
      "precision": null,
      "scale": null,
      "mysql": {
        "columnName": "updated_dttm",
        "dataType": "timestamp",
        "dataLength": null,
        "dataPrecision": null,
        "dataScale": null,
        "nullable": "N"
      }
    },
    "createdDttm": {
      "type": "date",
      "required": false,
      "length": null,
      "precision": null,
      "scale": null,
      "mysql": {
        "columnName": "created_dttm",
        "dataType": "datetime",
        "dataLength": null,
        "dataPrecision": null,
        "dataScale": null,
        "nullable": "Y"
      }
    },
    "createdBy": {
      "type": "number",
      "required": true,
      "length": null,
      "precision": 22,
      "scale": null,
      "mysql": {
        "columnName": "created_by",
        "dataType": "double",
        "dataLength": null,
        "dataPrecision": 22,
        "dataScale": null,
        "nullable": "N"
      }
    },
    "isUpdateAll": {
      "type": "string",
      "required": true,
      "length": 1,
      "precision": null,
      "scale": null,
      "mysql": {
        "columnName": "is_update_all",
        "dataType": "enum",
        "dataLength": 1,
        "dataPrecision": null,
        "dataScale": null,
        "nullable": "N"
      }
    },
    "isDeleted": {
      "type": "string",
      "required": true,
      "length": 1,
      "precision": null,
      "scale": null,
      "mysql": {
        "columnName": "is_deleted",
        "dataType": "varchar",
        "dataLength": 1,
        "dataPrecision": null,
        "dataScale": null,
        "nullable": "N"
      }
    }
  },
  "validations": [],
  "relations": {},
  "acls": [],
  "methods": {}
}
