{
	"name": "Quotes",
	"properties": {
		"quoteid": {
			"type": "number",
			"required": true,
			"length": null,
			"precision": 10,
			"scale": 0,
			"id": 1,
			"mysql": {
				"columnName": "quoteId",
				"dataType": "int",
				"dataLength": null,
				"dataPrecision": 10,
				"dataScale": 0,
				"nullable": "N"
			},
			"updateOnly": false
		},
		"fee": {
			"type": "number",
			"required": true,
			"length": null,
			"precision": 10,
			"scale": 2,
			"mysql": {
				"columnName": "fee",
				"dataType": "float",
				"dataLength": null,
				"dataPrecision": 10,
				"dataScale": 2,
				"nullable": "N"
			}
		},
		"estimatedpickuptime": {
			"type": "string",
			"required": true,
			"length": 256,
			"precision": null,
			"scale": null,
			"mysql": {
				"columnName": "estimatedPickupTime",
				"dataType": "varchar",
				"dataLength": 256,
				"dataPrecision": null,
				"dataScale": null,
				"nullable": "N"
			}
		},
		"estimateddropofftime": {
			"type": "string",
			"required": true,
			"length": 256,
			"precision": null,
			"scale": null,
			"mysql": {
				"columnName": "estimatedDropoffTime",
				"dataType": "varchar",
				"dataLength": 256,
				"dataPrecision": null,
				"dataScale": null,
				"nullable": "N"
			}
		},
		"expires": {
			"type": "string",
			"required": true,
			"length": 256,
			"precision": null,
			"scale": null,
			"mysql": {
				"columnName": "expires",
				"dataType": "varchar",
				"dataLength": 256,
				"dataPrecision": null,
				"dataScale": null,
				"nullable": "N"
			}
		},
		"polygonId": {
			"type": "number",
			"required": true,
			"length": null,
			"precision": 19,
			"scale": 0,
			"mysql": {
				"columnName": "polygon_id",
				"dataType": "bigint",
				"dataLength": null,
				"dataPrecision": 19,
				"dataScale": 0,
				"nullable": "N"
			}
		},
		"miles": {
			"type": "number",
			"required": true,
			"length": null,
			"precision": 10,
			"scale": 2,
			"mysql": {
				"columnName": "miles",
				"dataType": "float",
				"dataLength": null,
				"dataPrecision": 10,
				"dataScale": 2,
				"nullable": "N"
			}
		}
	},
	"settings": {
		"strict": false,
		"forceId": false,
		"replaceOnPUT": true,
		"idInjection": false,
		"mysql": {
			"schema": "menurunner_gen",
			"table": "quotes"
		}
	}
}