{
  "name": "VwCitywiseDrivers",
  "settings": {
    "strict": false,
    "forceId": "auto",
    "replaceOnPUT": true,
    "idInjection": false,
    "mysql": {
      "schema": "menurunner_gen",
      "table": "vw_citywise_drivers"
    }
  },
  "properties": {
    "driverId": {
      "type": "number",
      "required": true,
      "length": null,
      "precision": 22,
      "scale": null,
      "mysql": {
        "columnName": "driver_id",
        "dataType": "double",
        "dataLength": null,
        "dataPrecision": 22,
        "dataScale": null,
        "nullable": "N"
      }
    },
    "cityId": {
      "type": "number",
      "required": true,
      "length": null,
      "precision": 22,
      "scale": null,
      "mysql": {
        "columnName": "city_id",
        "dataType": "double",
        "dataLength": null,
        "dataPrecision": 22,
        "dataScale": null,
        "nullable": "N"
      }
    },
    "id": {
      "type": "number",
      "id": 1,
      "generated": true,
      "updateOnly": true
    }
  },
  "validations": [],
  "relations": {},
  "acls": [],
  "methods": {}
}
