{
  "name": "VwCurrentOrdersCount",
  "settings": {
    "strict": false,
    "forceId": "auto",
    "replaceOnPUT": true,
    "idInjection": false,
    "mysql": {
      "schema": "menurunner_gen",
      "table": "vw_current_orders_count"
    }
  },
  "properties": {
    "currentOrders": {
      "type": "number",
      "required": true,
      "length": null,
      "precision": 19,
      "scale": 0,
      "mysql": {
        "columnName": "current_orders",
        "dataType": "bigint",
        "dataLength": null,
        "dataPrecision": 19,
        "dataScale": 0,
        "nullable": "N"
      }
    },
    "cityId": {
      "type": "number",
      "required": true,
      "length": null,
      "precision": 22,
      "scale": null,
      "mysql": {
        "columnName": "city_id",
        "dataType": "double",
        "dataLength": null,
        "dataPrecision": 22,
        "dataScale": null,
        "nullable": "N"
      }
    },
    "id": {
      "type": "number",
      "id": 1,
      "generated": true,
      "updateOnly": true
    }
  },
  "validations": [],
  "relations": {},
  "acls": [],
  "methods": {}
}
